V3 3
FL /home/nacho/repos/sexto/td4/practica/ej3/vhdl/src/bcd2decimal.vhd 2020/03/30.03:46:37 P.20131013
EN work/bcd2decimal 1585601089 \
      FL /home/nacho/repos/sexto/td4/practica/ej3/vhdl/src/bcd2decimal.vhd \
      PB ieee/std_logic_1164 1381692176
AR work/bcd2decimal/logica 1585601090 \
      FL /home/nacho/repos/sexto/td4/practica/ej3/vhdl/src/bcd2decimal.vhd \
      EN work/bcd2decimal 1585601089
