INFO: [VRFC 10-2263] Analyzing Verilog file "/home/nacho/repos/sexto/td4/practica/ej9/vhdl/vivado/practica_ej9_vhdl.sim/sim_1/impl/timing/xsim/serie2paralelo_tb_time_impl.v" into library xil_defaultlib
INFO: [VRFC 10-311] analyzing module ff_jk
INFO: [VRFC 10-311] analyzing module ff_jk_0
INFO: [VRFC 10-311] analyzing module ff_jk_1
INFO: [VRFC 10-311] analyzing module ff_jk_10
INFO: [VRFC 10-311] analyzing module ff_jk_11
INFO: [VRFC 10-311] analyzing module ff_jk_12
INFO: [VRFC 10-311] analyzing module ff_jk_13
INFO: [VRFC 10-311] analyzing module ff_jk_14
INFO: [VRFC 10-311] analyzing module ff_jk_2
INFO: [VRFC 10-311] analyzing module ff_jk_3
INFO: [VRFC 10-311] analyzing module ff_jk_4
INFO: [VRFC 10-311] analyzing module ff_jk_5
INFO: [VRFC 10-311] analyzing module ff_jk_6
INFO: [VRFC 10-311] analyzing module ff_jk_7
INFO: [VRFC 10-311] analyzing module ff_jk_8
INFO: [VRFC 10-311] analyzing module ff_jk_9
INFO: [VRFC 10-311] analyzing module serie2paralelo
INFO: [VRFC 10-311] analyzing module glbl
