INFO: [VRFC 10-2263] Analyzing Verilog file "/home/nacho/repos/sexto/td4/practica/ej8/verilog/vivado/practica_ej8_verilog.sim/sim_1/impl/timing/xsim/contador_tb_time_impl.v" into library xil_defaultlib
INFO: [VRFC 10-311] analyzing module contador
INFO: [VRFC 10-311] analyzing module ff_jk
INFO: [VRFC 10-311] analyzing module ff_jk_0
INFO: [VRFC 10-311] analyzing module ff_jk_1
INFO: [VRFC 10-311] analyzing module glbl
INFO: [VRFC 10-2263] Analyzing Verilog file "/home/nacho/repos/sexto/td4/practica/ej8/verilog/src/contador_tb.v" into library xil_defaultlib
INFO: [VRFC 10-311] analyzing module contador_tb
