Copyright 1986-2019 Xilinx, Inc. All Rights Reserved.
---------------------------------------------------------------------------------------------------------------------------------------------------------
| Tool Version : Vivado v.2019.2 (lin64) Build 2708876 Wed Nov  6 21:39:14 MST 2019
| Date         : Tue Apr 21 10:43:02 2020
| Host         : snsv running 64-bit unknown
| Command      : report_bus_skew -warn_on_violation -file contador_bus_skew_routed.rpt -pb contador_bus_skew_routed.pb -rpx contador_bus_skew_routed.rpx
| Design       : contador
| Device       : 7z010-clg400
| Speed File   : -1  PRODUCTION 1.11 2014-09-11
---------------------------------------------------------------------------------------------------------------------------------------------------------

Bus Skew Report

No bus skew constraints

