V3 23
FL /home/nacho/repos/sexto/td4/practica/ej10/vhdl/src/bcd7seg.vhd 2020/04/21.13:17:15 P.20131013
EN work/bcd7seg 1587503594 \
      FL /home/nacho/repos/sexto/td4/practica/ej10/vhdl/src/bcd7seg.vhd \
      PB ieee/std_logic_1164 1381692176 PB ieee/STD_LOGIC_UNSIGNED 1381692179
AR work/bcd7seg/logica 1587503595 \
      FL /home/nacho/repos/sexto/td4/practica/ej10/vhdl/src/bcd7seg.vhd \
      EN work/bcd7seg 1587503594
FL /home/nacho/repos/sexto/td4/practica/ej10/vhdl/src/clk_divisor.vhd 2020/04/21.13:03:20 P.20131013
EN work/clk_divisor 1587503596 \
      FL /home/nacho/repos/sexto/td4/practica/ej10/vhdl/src/clk_divisor.vhd \
      PB ieee/std_logic_1164 1381692176 PB ieee/STD_LOGIC_UNSIGNED 1381692179 \
      PB ieee/MATH_REAL 1381692182 PB ieee/NUMERIC_STD 1381692181
AR work/clk_divisor/logica 1587503597 \
      FL /home/nacho/repos/sexto/td4/practica/ej10/vhdl/src/clk_divisor.vhd \
      EN work/clk_divisor 1587503596
FL /home/nacho/repos/sexto/td4/practica/ej10/vhdl/src/counter7seg.vhd 2020/04/21.14:23:17 P.20131013
EN work/counter_7seg 1587503598 \
      FL /home/nacho/repos/sexto/td4/practica/ej10/vhdl/src/counter7seg.vhd \
      PB ieee/std_logic_1164 1381692176 PB ieee/STD_LOGIC_UNSIGNED 1381692179
AR work/counter_7seg/logica 1587503599 \
      FL /home/nacho/repos/sexto/td4/practica/ej10/vhdl/src/counter7seg.vhd \
      EN work/counter_7seg 1587503598 CP decimal_counter CP bcd7seg
FL /home/nacho/repos/sexto/td4/practica/ej10/vhdl/src/count_decider.vhd 2020/04/21.13:57:03 P.20131013
EN work/count_decider 1587503600 \
      FL /home/nacho/repos/sexto/td4/practica/ej10/vhdl/src/count_decider.vhd \
      PB ieee/std_logic_1164 1381692176 PB ieee/STD_LOGIC_UNSIGNED 1381692179
AR work/count_decider/logica 1587503601 \
      FL /home/nacho/repos/sexto/td4/practica/ej10/vhdl/src/count_decider.vhd \
      EN work/count_decider 1587503600
FL /home/nacho/repos/sexto/td4/practica/ej10/vhdl/src/decimal_counter.vhd 2020/04/21.14:16:59 P.20131013
EN work/decimal_counter 1587503592 \
      FL /home/nacho/repos/sexto/td4/practica/ej10/vhdl/src/decimal_counter.vhd \
      PB ieee/std_logic_1164 1381692176 PB ieee/STD_LOGIC_UNSIGNED 1381692179 \
      PB ieee/MATH_REAL 1381692182 PB ieee/NUMERIC_STD 1381692181
AR work/decimal_counter/logica 1587503593 \
      FL /home/nacho/repos/sexto/td4/practica/ej10/vhdl/src/decimal_counter.vhd \
      EN work/decimal_counter 1587503592
FL /home/nacho/repos/sexto/td4/practica/ej10/vhdl/src/top_cronometro.vhd 2020/04/21.14:24:37 P.20131013
EN work/cronometro 1587503602 \
      FL /home/nacho/repos/sexto/td4/practica/ej10/vhdl/src/top_cronometro.vhd \
      PB ieee/std_logic_1164 1381692176 PB ieee/STD_LOGIC_UNSIGNED 1381692179
AR work/cronometro/logica 1587503603 \
      FL /home/nacho/repos/sexto/td4/practica/ej10/vhdl/src/top_cronometro.vhd \
      EN work/cronometro 1587503602 CP clk_divisor CP counter_7seg CP count_decider
