Copyright 1986-2019 Xilinx, Inc. All Rights Reserved.
-----------------------------------------------------------------------------------------
| Tool Version : Vivado v.2019.2 (lin64) Build 2708876 Wed Nov  6 21:39:14 MST 2019
| Date         : Sat May  2 16:55:51 2020
| Host         : snsv running 64-bit unknown
| Command      : report_control_sets -verbose -file topDriverVGA_control_sets_placed.rpt
| Design       : topDriverVGA
| Device       : xc7z010
-----------------------------------------------------------------------------------------

Control Set Information

Table of Contents
-----------------
1. Summary
2. Histogram
3. Flip-Flop Distribution
4. Detailed Control Set Information

1. Summary
----------

+----------------------------------------------------------+-------+
|                          Status                          | Count |
+----------------------------------------------------------+-------+
| Total control sets                                       |     6 |
|    Minimum number of control sets                        |     6 |
|    Addition due to synthesis replication                 |     0 |
|    Addition due to physical synthesis replication        |     0 |
| Unused register locations in slices containing registers |    28 |
+----------------------------------------------------------+-------+
* Control sets can be merged at opt_design using control_set_merge or merge_equivalent_drivers
** Run report_qor_suggestions for automated merging and remapping suggestions


2. Histogram
------------

+--------------------+-------+
|       Fanout       | Count |
+--------------------+-------+
| Total control sets |     6 |
| >= 0 to < 4        |     1 |
| >= 4 to < 6        |     1 |
| >= 6 to < 8        |     0 |
| >= 8 to < 10       |     0 |
| >= 10 to < 12      |     3 |
| >= 12 to < 14      |     0 |
| >= 14 to < 16      |     1 |
| >= 16              |     0 |
+--------------------+-------+
* Control sets can be remapped at either synth_design or opt_design


3. Flip-Flop Distribution
-------------------------

+--------------+-----------------------+------------------------+-----------------+--------------+
| Clock Enable | Synchronous Set/Reset | Asynchronous Set/Reset | Total Registers | Total Slices |
+--------------+-----------------------+------------------------+-----------------+--------------+
| No           | No                    | No                     |               6 |            3 |
| No           | No                    | Yes                    |               0 |            0 |
| No           | Yes                   | No                     |              26 |            8 |
| Yes          | No                    | No                     |               0 |            0 |
| Yes          | No                    | Yes                    |               0 |            0 |
| Yes          | Yes                   | No                     |              20 |           10 |
+--------------+-----------------------+------------------------+-----------------+--------------+


4. Detailed Control Set Information
-----------------------------------

+-------------------+---------------+----------------------+------------------+----------------+
|    Clock Signal   | Enable Signal |   Set/Reset Signal   | Slice Load Count | Bel Load Count |
+-------------------+---------------+----------------------+------------------+----------------+
|  auxClk25Mhz_BUFG |               |                      |                1 |              1 |
|  clk_IBUF_BUFG    |               |                      |                2 |              5 |
|  auxClk25Mhz_BUFG | maqEst/E[0]   | maqEst/E_reg[1]_1[0] |                5 |             10 |
|  auxClk25Mhz_BUFG | genSel/E[0]   | maqEst/SR[0]         |                5 |             10 |
|  auxClk25Mhz_BUFG |               | reset_IBUF           |                4 |             11 |
|  auxClk25Mhz_BUFG |               | maqEst/resetCont0    |                4 |             15 |
+-------------------+---------------+----------------------+------------------+----------------+


