
*** Running vivado
    with args -log motor_encoder_control.vds -m64 -product Vivado -mode batch -messageDb vivado.pb -notrace -source motor_encoder_control.tcl


****** Vivado v2019.2 (64-bit)
  **** SW Build 2708876 on Wed Nov  6 21:39:14 MST 2019
  **** IP Build 2700528 on Thu Nov  7 00:09:20 MST 2019
    ** Copyright 1986-2019 Xilinx, Inc. All Rights Reserved.

source motor_encoder_control.tcl -notrace
Command: synth_design -top motor_encoder_control -part xc7z010clg400-1
Starting synth_design
Attempting to get a license for feature 'Synthesis' and/or device 'xc7z010'
INFO: [Common 17-349] Got license for feature 'Synthesis' and/or device 'xc7z010'
INFO: [Device 21-403] Loading part xc7z010clg400-1
INFO: Launching helper process for spawning children vivado processes
INFO: Helper process launched with PID 1568359 
---------------------------------------------------------------------------------
Starting RTL Elaboration : Time (s): cpu = 00:00:04 ; elapsed = 00:00:06 . Memory (MB): peak = 1991.633 ; gain = 203.688 ; free physical = 429 ; free virtual = 10473
---------------------------------------------------------------------------------
INFO: [Synth 8-638] synthesizing module 'motor_encoder_control' [/home/nacho/repos/sexto/td4/tp1/resolucion/fuentes/top_motor_decoder_control.vhd:33]
	Parameter digits bound to: 4 - type: integer 
	Parameter count_bits bound to: 11 - type: integer 
	Parameter max_count bound to: 2000 - type: integer 
	Parameter max_ms_digit bound to: 1 - type: integer 
	Parameter max_count bound to: 2000 - type: integer 
	Parameter count_bits bound to: 11 - type: integer 
INFO: [Synth 8-3491] module 'pwm_control' declared at '/home/nacho/repos/sexto/td4/tp1/resolucion/fuentes/pwm_control.vhd:18' bound to instance 'pwm_controller' of component 'pwm_control' [/home/nacho/repos/sexto/td4/tp1/resolucion/fuentes/top_motor_decoder_control.vhd:83]
INFO: [Synth 8-638] synthesizing module 'pwm_control' [/home/nacho/repos/sexto/td4/tp1/resolucion/fuentes/pwm_control.vhd:28]
	Parameter max_count bound to: 2000 - type: integer 
	Parameter count_bits bound to: 11 - type: integer 
INFO: [Synth 8-256] done synthesizing module 'pwm_control' (1#1) [/home/nacho/repos/sexto/td4/tp1/resolucion/fuentes/pwm_control.vhd:28]
INFO: [Synth 8-3491] module 'pwm' declared at '/home/nacho/repos/sexto/td4/tp1/resolucion/fuentes/pwm.vhd:20' bound to instance 'pwm_driver' of component 'pwm' [/home/nacho/repos/sexto/td4/tp1/resolucion/fuentes/top_motor_decoder_control.vhd:92]
INFO: [Synth 8-638] synthesizing module 'pwm' [/home/nacho/repos/sexto/td4/tp1/resolucion/fuentes/pwm.vhd:28]
INFO: [Synth 8-256] done synthesizing module 'pwm' (2#1) [/home/nacho/repos/sexto/td4/tp1/resolucion/fuentes/pwm.vhd:28]
	Parameter digits bound to: 4 - type: integer 
	Parameter count_bits bound to: 11 - type: integer 
	Parameter max_ms_digit bound to: 1 - type: integer 
INFO: [Synth 8-3491] module 'full_counter' declared at '/home/nacho/repos/sexto/td4/tp1/resolucion/fuentes/full_counter.vhd:18' bound to instance 'counter_4_disp' of component 'full_counter' [/home/nacho/repos/sexto/td4/tp1/resolucion/fuentes/top_motor_decoder_control.vhd:99]
INFO: [Synth 8-638] synthesizing module 'full_counter' [/home/nacho/repos/sexto/td4/tp1/resolucion/fuentes/full_counter.vhd:33]
	Parameter max_ms_digit bound to: 1 - type: integer 
	Parameter count_bits bound to: 11 - type: integer 
	Parameter digits bound to: 4 - type: integer 
	Parameter div bound to: 15 - type: integer 
INFO: [Synth 8-3491] module 'clk_divisor' declared at '/home/nacho/repos/sexto/td4/tp1/resolucion/fuentes/clk_divisor.vhd:19' bound to instance 'divisor_15_1' of component 'clk_divisor' [/home/nacho/repos/sexto/td4/tp1/resolucion/fuentes/full_counter.vhd:99]
INFO: [Synth 8-638] synthesizing module 'clk_divisor' [/home/nacho/repos/sexto/td4/tp1/resolucion/fuentes/clk_divisor.vhd:27]
	Parameter div bound to: 15 - type: integer 
INFO: [Synth 8-256] done synthesizing module 'clk_divisor' (3#1) [/home/nacho/repos/sexto/td4/tp1/resolucion/fuentes/clk_divisor.vhd:27]
	Parameter digits bound to: 4 - type: integer 
INFO: [Synth 8-3491] module 'mux_displays' declared at '/home/nacho/repos/sexto/td4/tp1/resolucion/fuentes/mux_displays.vhd:19' bound to instance 'display_mux' of component 'mux_displays' [/home/nacho/repos/sexto/td4/tp1/resolucion/fuentes/full_counter.vhd:107]
INFO: [Synth 8-638] synthesizing module 'mux_displays' [/home/nacho/repos/sexto/td4/tp1/resolucion/fuentes/mux_displays.vhd:29]
	Parameter digits bound to: 4 - type: integer 
INFO: [Synth 8-256] done synthesizing module 'mux_displays' (4#1) [/home/nacho/repos/sexto/td4/tp1/resolucion/fuentes/mux_displays.vhd:29]
	Parameter max bound to: 9 - type: integer 
INFO: [Synth 8-3491] module 'counter_7seg' declared at '/home/nacho/repos/sexto/td4/tp1/resolucion/fuentes/counter7seg.vhd:17' bound to instance 'display' of component 'counter_7seg' [/home/nacho/repos/sexto/td4/tp1/resolucion/fuentes/full_counter.vhd:119]
INFO: [Synth 8-638] synthesizing module 'counter_7seg' [/home/nacho/repos/sexto/td4/tp1/resolucion/fuentes/counter7seg.vhd:29]
	Parameter max bound to: 9 - type: integer 
	Parameter max bound to: 9 - type: integer 
INFO: [Synth 8-3491] module 'decimal_counter' declared at '/home/nacho/repos/sexto/td4/tp1/resolucion/fuentes/decimal_counter.vhd:19' bound to instance 'counter' of component 'decimal_counter' [/home/nacho/repos/sexto/td4/tp1/resolucion/fuentes/counter7seg.vhd:51]
INFO: [Synth 8-638] synthesizing module 'decimal_counter' [/home/nacho/repos/sexto/td4/tp1/resolucion/fuentes/decimal_counter.vhd:31]
	Parameter max bound to: 9 - type: integer 
INFO: [Synth 8-256] done synthesizing module 'decimal_counter' (5#1) [/home/nacho/repos/sexto/td4/tp1/resolucion/fuentes/decimal_counter.vhd:31]
INFO: [Synth 8-3491] module 'bcd7seg' declared at '/home/nacho/repos/sexto/td4/tp1/resolucion/fuentes/bcd7seg.vhd:17' bound to instance 'display' of component 'bcd7seg' [/home/nacho/repos/sexto/td4/tp1/resolucion/fuentes/counter7seg.vhd:61]
INFO: [Synth 8-638] synthesizing module 'bcd7seg' [/home/nacho/repos/sexto/td4/tp1/resolucion/fuentes/bcd7seg.vhd:22]
INFO: [Synth 8-226] default block is never used [/home/nacho/repos/sexto/td4/tp1/resolucion/fuentes/bcd7seg.vhd:28]
INFO: [Synth 8-256] done synthesizing module 'bcd7seg' (6#1) [/home/nacho/repos/sexto/td4/tp1/resolucion/fuentes/bcd7seg.vhd:22]
INFO: [Synth 8-256] done synthesizing module 'counter_7seg' (7#1) [/home/nacho/repos/sexto/td4/tp1/resolucion/fuentes/counter7seg.vhd:29]
	Parameter max bound to: 9 - type: integer 
INFO: [Synth 8-3491] module 'counter_7seg' declared at '/home/nacho/repos/sexto/td4/tp1/resolucion/fuentes/counter7seg.vhd:17' bound to instance 'display' of component 'counter_7seg' [/home/nacho/repos/sexto/td4/tp1/resolucion/fuentes/full_counter.vhd:119]
	Parameter max bound to: 9 - type: integer 
INFO: [Synth 8-3491] module 'counter_7seg' declared at '/home/nacho/repos/sexto/td4/tp1/resolucion/fuentes/counter7seg.vhd:17' bound to instance 'display' of component 'counter_7seg' [/home/nacho/repos/sexto/td4/tp1/resolucion/fuentes/full_counter.vhd:119]
INFO: [Synth 8-3491] module 'count_decider' declared at '/home/nacho/repos/sexto/td4/tp1/resolucion/fuentes/count_decider.vhd:17' bound to instance 'updown_decider' of component 'count_decider' [/home/nacho/repos/sexto/td4/tp1/resolucion/fuentes/full_counter.vhd:134]
INFO: [Synth 8-638] synthesizing module 'count_decider' [/home/nacho/repos/sexto/td4/tp1/resolucion/fuentes/count_decider.vhd:26]
INFO: [Synth 8-256] done synthesizing module 'count_decider' (8#1) [/home/nacho/repos/sexto/td4/tp1/resolucion/fuentes/count_decider.vhd:26]
INFO: [Synth 8-3491] module 'count_decider' declared at '/home/nacho/repos/sexto/td4/tp1/resolucion/fuentes/count_decider.vhd:17' bound to instance 'updown_decider' of component 'count_decider' [/home/nacho/repos/sexto/td4/tp1/resolucion/fuentes/full_counter.vhd:134]
INFO: [Synth 8-3491] module 'count_decider' declared at '/home/nacho/repos/sexto/td4/tp1/resolucion/fuentes/count_decider.vhd:17' bound to instance 'updown_decider' of component 'count_decider' [/home/nacho/repos/sexto/td4/tp1/resolucion/fuentes/full_counter.vhd:134]
INFO: [Synth 8-3491] module 'count_decider' declared at '/home/nacho/repos/sexto/td4/tp1/resolucion/fuentes/count_decider.vhd:17' bound to instance 'updown_decider' of component 'count_decider' [/home/nacho/repos/sexto/td4/tp1/resolucion/fuentes/full_counter.vhd:134]
	Parameter max bound to: 1 - type: integer 
INFO: [Synth 8-3491] module 'counter_7seg' declared at '/home/nacho/repos/sexto/td4/tp1/resolucion/fuentes/counter7seg.vhd:17' bound to instance 'last_display' of component 'counter_7seg' [/home/nacho/repos/sexto/td4/tp1/resolucion/fuentes/full_counter.vhd:144]
INFO: [Synth 8-638] synthesizing module 'counter_7seg__parameterized2' [/home/nacho/repos/sexto/td4/tp1/resolucion/fuentes/counter7seg.vhd:29]
	Parameter max bound to: 1 - type: integer 
	Parameter max bound to: 1 - type: integer 
INFO: [Synth 8-3491] module 'decimal_counter' declared at '/home/nacho/repos/sexto/td4/tp1/resolucion/fuentes/decimal_counter.vhd:19' bound to instance 'counter' of component 'decimal_counter' [/home/nacho/repos/sexto/td4/tp1/resolucion/fuentes/counter7seg.vhd:51]
INFO: [Synth 8-638] synthesizing module 'decimal_counter__parameterized1' [/home/nacho/repos/sexto/td4/tp1/resolucion/fuentes/decimal_counter.vhd:31]
	Parameter max bound to: 1 - type: integer 
INFO: [Synth 8-256] done synthesizing module 'decimal_counter__parameterized1' (8#1) [/home/nacho/repos/sexto/td4/tp1/resolucion/fuentes/decimal_counter.vhd:31]
INFO: [Synth 8-3491] module 'bcd7seg' declared at '/home/nacho/repos/sexto/td4/tp1/resolucion/fuentes/bcd7seg.vhd:17' bound to instance 'display' of component 'bcd7seg' [/home/nacho/repos/sexto/td4/tp1/resolucion/fuentes/counter7seg.vhd:61]
INFO: [Synth 8-256] done synthesizing module 'counter_7seg__parameterized2' (8#1) [/home/nacho/repos/sexto/td4/tp1/resolucion/fuentes/counter7seg.vhd:29]
	Parameter binary_bits bound to: 11 - type: integer 
	Parameter digits bound to: 4 - type: integer 
INFO: [Synth 8-3491] module 'bcd2bin' declared at '/home/nacho/repos/sexto/td4/tp1/resolucion/fuentes/bcd2bin.vhd:18' bound to instance 'bcd_decoder' of component 'bcd2bin' [/home/nacho/repos/sexto/td4/tp1/resolucion/fuentes/full_counter.vhd:156]
INFO: [Synth 8-638] synthesizing module 'bcd2bin' [/home/nacho/repos/sexto/td4/tp1/resolucion/fuentes/bcd2bin.vhd:27]
	Parameter binary_bits bound to: 11 - type: integer 
	Parameter digits bound to: 4 - type: integer 
INFO: [Synth 8-256] done synthesizing module 'bcd2bin' (9#1) [/home/nacho/repos/sexto/td4/tp1/resolucion/fuentes/bcd2bin.vhd:27]
INFO: [Synth 8-256] done synthesizing module 'full_counter' (10#1) [/home/nacho/repos/sexto/td4/tp1/resolucion/fuentes/full_counter.vhd:33]
	Parameter steps bound to: 3 - type: integer 
INFO: [Synth 8-3491] module 'decoder' declared at '/home/nacho/repos/sexto/td4/tp1/resolucion/fuentes/decoder.vhd:19' bound to instance 'decoder_ab' of component 'decoder' [/home/nacho/repos/sexto/td4/tp1/resolucion/fuentes/top_motor_decoder_control.vhd:114]
INFO: [Synth 8-638] synthesizing module 'decoder' [/home/nacho/repos/sexto/td4/tp1/resolucion/fuentes/decoder.vhd:28]
	Parameter steps bound to: 3 - type: integer 
INFO: [Synth 8-256] done synthesizing module 'decoder' (11#1) [/home/nacho/repos/sexto/td4/tp1/resolucion/fuentes/decoder.vhd:28]
INFO: [Synth 8-256] done synthesizing module 'motor_encoder_control' (12#1) [/home/nacho/repos/sexto/td4/tp1/resolucion/fuentes/top_motor_decoder_control.vhd:33]
---------------------------------------------------------------------------------
Finished RTL Elaboration : Time (s): cpu = 00:00:06 ; elapsed = 00:00:08 . Memory (MB): peak = 2053.383 ; gain = 265.438 ; free physical = 461 ; free virtual = 10505
---------------------------------------------------------------------------------

Report Check Netlist: 
+------+------------------+-------+---------+-------+------------------+
|      |Item              |Errors |Warnings |Status |Description       |
+------+------------------+-------+---------+-------+------------------+
|1     |multi_driven_nets |      0|        0|Passed |Multi driven nets |
+------+------------------+-------+---------+-------+------------------+
---------------------------------------------------------------------------------
Start Handling Custom Attributes
---------------------------------------------------------------------------------
---------------------------------------------------------------------------------
Finished Handling Custom Attributes : Time (s): cpu = 00:00:07 ; elapsed = 00:00:09 . Memory (MB): peak = 2059.320 ; gain = 271.375 ; free physical = 457 ; free virtual = 10502
---------------------------------------------------------------------------------
---------------------------------------------------------------------------------
Finished RTL Optimization Phase 1 : Time (s): cpu = 00:00:07 ; elapsed = 00:00:09 . Memory (MB): peak = 2059.320 ; gain = 271.375 ; free physical = 457 ; free virtual = 10502
---------------------------------------------------------------------------------
Netlist sorting complete. Time (s): cpu = 00:00:00 ; elapsed = 00:00:00 . Memory (MB): peak = 2059.320 ; gain = 0.000 ; free physical = 451 ; free virtual = 10495
INFO: [Project 1-570] Preparing netlist for logic optimization

Processing XDC Constraints
Initializing timing engine
Parsing XDC File [/home/nacho/repos/sexto/td4/tp1/resolucion/vivado/td4_tp1_encoder.srcs/constrs_1/imports/digilent-xdc/Zybo-Z7-Master.xdc]
Finished Parsing XDC File [/home/nacho/repos/sexto/td4/tp1/resolucion/vivado/td4_tp1_encoder.srcs/constrs_1/imports/digilent-xdc/Zybo-Z7-Master.xdc]
Completed Processing XDC Constraints

Netlist sorting complete. Time (s): cpu = 00:00:00 ; elapsed = 00:00:00 . Memory (MB): peak = 2185.148 ; gain = 0.000 ; free physical = 367 ; free virtual = 10411
INFO: [Project 1-111] Unisim Transformation Summary:
No Unisim elements were transformed.

Constraint Validation Runtime : Time (s): cpu = 00:00:00.01 ; elapsed = 00:00:00.01 . Memory (MB): peak = 2185.148 ; gain = 0.000 ; free physical = 367 ; free virtual = 10411
---------------------------------------------------------------------------------
Finished Constraint Validation : Time (s): cpu = 00:00:13 ; elapsed = 00:00:17 . Memory (MB): peak = 2185.148 ; gain = 397.203 ; free physical = 434 ; free virtual = 10478
---------------------------------------------------------------------------------
---------------------------------------------------------------------------------
Start Loading Part and Timing Information
---------------------------------------------------------------------------------
Loading part: xc7z010clg400-1
---------------------------------------------------------------------------------
Finished Loading Part and Timing Information : Time (s): cpu = 00:00:13 ; elapsed = 00:00:17 . Memory (MB): peak = 2185.148 ; gain = 397.203 ; free physical = 434 ; free virtual = 10478
---------------------------------------------------------------------------------
---------------------------------------------------------------------------------
Start Applying 'set_property' XDC Constraints
---------------------------------------------------------------------------------
---------------------------------------------------------------------------------
Finished applying 'set_property' XDC Constraints : Time (s): cpu = 00:00:13 ; elapsed = 00:00:17 . Memory (MB): peak = 2185.148 ; gain = 397.203 ; free physical = 434 ; free virtual = 10478
---------------------------------------------------------------------------------
INFO: [Synth 8-5818] HDL ADVISOR - The operator resource <adder> is shared. To prevent sharing consider applying a KEEP on the output of the operator [/home/nacho/repos/sexto/td4/tp1/resolucion/fuentes/pwm_control.vhd:42]
---------------------------------------------------------------------------------
Finished RTL Optimization Phase 2 : Time (s): cpu = 00:00:14 ; elapsed = 00:00:17 . Memory (MB): peak = 2185.148 ; gain = 397.203 ; free physical = 426 ; free virtual = 10471
---------------------------------------------------------------------------------

Report RTL Partitions: 
+-+--------------+------------+----------+
| |RTL Partition |Replication |Instances |
+-+--------------+------------+----------+
+-+--------------+------------+----------+
---------------------------------------------------------------------------------
Start RTL Component Statistics 
---------------------------------------------------------------------------------
Detailed RTL Component Info : 
+---Adders : 
	   3 Input     11 Bit       Adders := 1     
	   2 Input     11 Bit       Adders := 1     
	   2 Input      7 Bit       Adders := 3     
	   2 Input      4 Bit       Adders := 9     
	   2 Input      2 Bit       Adders := 2     
+---XORs : 
	   2 Input      1 Bit         XORs := 1     
+---Registers : 
	                7 Bit    Registers := 2     
	                4 Bit    Registers := 6     
	                2 Bit    Registers := 2     
	                1 Bit    Registers := 7     
+---Muxes : 
	   2 Input     11 Bit        Muxes := 3     
	   2 Input      7 Bit        Muxes := 4     
	   4 Input      7 Bit        Muxes := 1     
	   2 Input      4 Bit        Muxes := 13    
	   2 Input      1 Bit        Muxes := 8     
---------------------------------------------------------------------------------
Finished RTL Component Statistics 
---------------------------------------------------------------------------------
---------------------------------------------------------------------------------
Start RTL Hierarchical Component Statistics 
---------------------------------------------------------------------------------
Hierarchical RTL Component report 
Module pwm_control 
Detailed RTL Component Info : 
+---Adders : 
	   3 Input     11 Bit       Adders := 1     
	   2 Input     11 Bit       Adders := 1     
	   2 Input      7 Bit       Adders := 1     
+---XORs : 
	   2 Input      1 Bit         XORs := 1     
+---Muxes : 
	   2 Input     11 Bit        Muxes := 3     
	   2 Input      7 Bit        Muxes := 3     
Module pwm 
Detailed RTL Component Info : 
+---Adders : 
	   2 Input      7 Bit       Adders := 2     
+---Registers : 
	                7 Bit    Registers := 1     
+---Muxes : 
	   2 Input      7 Bit        Muxes := 1     
Module clk_divisor 
Detailed RTL Component Info : 
+---Adders : 
	   2 Input      4 Bit       Adders := 1     
+---Registers : 
	                4 Bit    Registers := 1     
	                1 Bit    Registers := 1     
+---Muxes : 
	   2 Input      4 Bit        Muxes := 1     
Module mux_displays 
Detailed RTL Component Info : 
+---Adders : 
	   2 Input      2 Bit       Adders := 1     
+---Registers : 
	                7 Bit    Registers := 1     
	                4 Bit    Registers := 1     
	                2 Bit    Registers := 1     
+---Muxes : 
	   4 Input      7 Bit        Muxes := 1     
Module decimal_counter 
Detailed RTL Component Info : 
+---Adders : 
	   2 Input      4 Bit       Adders := 2     
+---Registers : 
	                4 Bit    Registers := 1     
+---Muxes : 
	   2 Input      4 Bit        Muxes := 3     
	   2 Input      1 Bit        Muxes := 2     
Module count_decider 
Detailed RTL Component Info : 
+---Registers : 
	                1 Bit    Registers := 1     
Module decimal_counter__parameterized1 
Detailed RTL Component Info : 
+---Adders : 
	   2 Input      4 Bit       Adders := 2     
+---Registers : 
	                4 Bit    Registers := 1     
+---Muxes : 
	   2 Input      4 Bit        Muxes := 3     
	   2 Input      1 Bit        Muxes := 2     
Module decoder 
Detailed RTL Component Info : 
+---Adders : 
	   2 Input      2 Bit       Adders := 1     
+---Registers : 
	                2 Bit    Registers := 1     
	                1 Bit    Registers := 2     
---------------------------------------------------------------------------------
Finished RTL Hierarchical Component Statistics
---------------------------------------------------------------------------------
---------------------------------------------------------------------------------
Start Part Resource Summary
---------------------------------------------------------------------------------
Part Resources:
DSPs: 80 (col length:40)
BRAMs: 120 (col length: RAMB18 40 RAMB36 20)
---------------------------------------------------------------------------------
Finished Part Resource Summary
---------------------------------------------------------------------------------
---------------------------------------------------------------------------------
Start Cross Boundary and Area Optimization
---------------------------------------------------------------------------------
Warning: Parallel synthesis criteria is not met 
INFO: [Synth 8-3333] propagating constant 0 across sequential element (i_0/\counter_4_disp/divisor_15_1/s_counter_reg[3] )
---------------------------------------------------------------------------------
Finished Cross Boundary and Area Optimization : Time (s): cpu = 00:00:16 ; elapsed = 00:00:19 . Memory (MB): peak = 2185.148 ; gain = 397.203 ; free physical = 407 ; free virtual = 10457
---------------------------------------------------------------------------------

Report RTL Partitions: 
+-+--------------+------------+----------+
| |RTL Partition |Replication |Instances |
+-+--------------+------------+----------+
+-+--------------+------------+----------+
---------------------------------------------------------------------------------
Start Applying XDC Timing Constraints
---------------------------------------------------------------------------------
---------------------------------------------------------------------------------
Finished Applying XDC Timing Constraints : Time (s): cpu = 00:00:24 ; elapsed = 00:00:29 . Memory (MB): peak = 2185.148 ; gain = 397.203 ; free physical = 283 ; free virtual = 10332
---------------------------------------------------------------------------------
---------------------------------------------------------------------------------
Start Timing Optimization
---------------------------------------------------------------------------------
---------------------------------------------------------------------------------
Finished Timing Optimization : Time (s): cpu = 00:00:25 ; elapsed = 00:00:30 . Memory (MB): peak = 2185.148 ; gain = 397.203 ; free physical = 275 ; free virtual = 10325
---------------------------------------------------------------------------------

Report RTL Partitions: 
+-+--------------+------------+----------+
| |RTL Partition |Replication |Instances |
+-+--------------+------------+----------+
+-+--------------+------------+----------+
---------------------------------------------------------------------------------
Start Technology Mapping
---------------------------------------------------------------------------------
---------------------------------------------------------------------------------
Finished Technology Mapping : Time (s): cpu = 00:00:25 ; elapsed = 00:00:30 . Memory (MB): peak = 2185.148 ; gain = 397.203 ; free physical = 274 ; free virtual = 10324
---------------------------------------------------------------------------------

Report RTL Partitions: 
+-+--------------+------------+----------+
| |RTL Partition |Replication |Instances |
+-+--------------+------------+----------+
+-+--------------+------------+----------+
---------------------------------------------------------------------------------
Start IO Insertion
---------------------------------------------------------------------------------
---------------------------------------------------------------------------------
Start Flattening Before IO Insertion
---------------------------------------------------------------------------------
---------------------------------------------------------------------------------
Finished Flattening Before IO Insertion
---------------------------------------------------------------------------------
---------------------------------------------------------------------------------
Start Final Netlist Cleanup
---------------------------------------------------------------------------------
---------------------------------------------------------------------------------
Finished Final Netlist Cleanup
---------------------------------------------------------------------------------
---------------------------------------------------------------------------------
Finished IO Insertion : Time (s): cpu = 00:00:29 ; elapsed = 00:00:35 . Memory (MB): peak = 2185.148 ; gain = 397.203 ; free physical = 276 ; free virtual = 10325
---------------------------------------------------------------------------------
---------------------------------------------------------------------------------
Start Renaming Generated Instances
---------------------------------------------------------------------------------
---------------------------------------------------------------------------------
Finished Renaming Generated Instances : Time (s): cpu = 00:00:29 ; elapsed = 00:00:35 . Memory (MB): peak = 2185.148 ; gain = 397.203 ; free physical = 276 ; free virtual = 10325
---------------------------------------------------------------------------------

Report RTL Partitions: 
+-+--------------+------------+----------+
| |RTL Partition |Replication |Instances |
+-+--------------+------------+----------+
+-+--------------+------------+----------+

Report Check Netlist: 
+------+------------------+-------+---------+-------+------------------+
|      |Item              |Errors |Warnings |Status |Description       |
+------+------------------+-------+---------+-------+------------------+
|1     |multi_driven_nets |      0|        0|Passed |Multi driven nets |
+------+------------------+-------+---------+-------+------------------+
---------------------------------------------------------------------------------
Start Rebuilding User Hierarchy
---------------------------------------------------------------------------------
---------------------------------------------------------------------------------
Finished Rebuilding User Hierarchy : Time (s): cpu = 00:00:29 ; elapsed = 00:00:35 . Memory (MB): peak = 2185.148 ; gain = 397.203 ; free physical = 276 ; free virtual = 10325
---------------------------------------------------------------------------------
---------------------------------------------------------------------------------
Start Renaming Generated Ports
---------------------------------------------------------------------------------
---------------------------------------------------------------------------------
Finished Renaming Generated Ports : Time (s): cpu = 00:00:29 ; elapsed = 00:00:35 . Memory (MB): peak = 2185.148 ; gain = 397.203 ; free physical = 276 ; free virtual = 10325
---------------------------------------------------------------------------------
---------------------------------------------------------------------------------
Start Handling Custom Attributes
---------------------------------------------------------------------------------
---------------------------------------------------------------------------------
Finished Handling Custom Attributes : Time (s): cpu = 00:00:29 ; elapsed = 00:00:35 . Memory (MB): peak = 2185.148 ; gain = 397.203 ; free physical = 276 ; free virtual = 10325
---------------------------------------------------------------------------------
---------------------------------------------------------------------------------
Start Renaming Generated Nets
---------------------------------------------------------------------------------
---------------------------------------------------------------------------------
Finished Renaming Generated Nets : Time (s): cpu = 00:00:29 ; elapsed = 00:00:35 . Memory (MB): peak = 2185.148 ; gain = 397.203 ; free physical = 276 ; free virtual = 10325
---------------------------------------------------------------------------------
---------------------------------------------------------------------------------
Start Writing Synthesis Report
---------------------------------------------------------------------------------

Report BlackBoxes: 
+-+--------------+----------+
| |BlackBox name |Instances |
+-+--------------+----------+
+-+--------------+----------+

Report Cell Usage: 
+------+-------+------+
|      |Cell   |Count |
+------+-------+------+
|1     |BUFG   |     2|
|2     |CARRY4 |    19|
|3     |LUT1   |     9|
|4     |LUT2   |    42|
|5     |LUT3   |    25|
|6     |LUT4   |    19|
|7     |LUT5   |    25|
|8     |LUT6   |    50|
|9     |MUXF7  |     1|
|10    |FDCE   |    36|
|11    |FDRE   |     9|
|12    |IBUF   |    15|
|13    |OBUF   |    23|
+------+-------+------+

Report Instance Areas: 
+------+------------------------------------------+--------------------------------+------+
|      |Instance                                  |Module                          |Cells |
+------+------------------------------------------+--------------------------------+------+
|1     |top                                       |                                |   275|
|2     |  counter_4_disp                          |full_counter                    |   140|
|3     |    bcd_decoder                           |bcd2bin                         |    20|
|4     |    display_mux                           |mux_displays                    |    25|
|5     |    divisor_15_1                          |clk_divisor                     |     8|
|6     |    \generador_decider[0].updown_decider  |count_decider                   |     1|
|7     |    \generador_decider[1].updown_decider  |count_decider_0                 |     1|
|8     |    \generador_decider[2].updown_decider  |count_decider_1                 |     1|
|9     |    \generador_decider[3].updown_decider  |count_decider_2                 |     1|
|10    |    \generador_display[0].display         |counter_7seg                    |    25|
|11    |      counter                             |decimal_counter_6               |    25|
|12    |    \generador_display[1].display         |counter_7seg_3                  |    26|
|13    |      counter                             |decimal_counter_5               |    26|
|14    |    \generador_display[2].display         |counter_7seg_4                  |    28|
|15    |      counter                             |decimal_counter                 |    28|
|16    |    last_display                          |counter_7seg__parameterized2    |     4|
|17    |      counter                             |decimal_counter__parameterized1 |     4|
|18    |  decoder_ab                              |decoder                         |     8|
|19    |  pwm_controller                          |pwm_control                     |    67|
|20    |  pwm_driver                              |pwm                             |    20|
+------+------------------------------------------+--------------------------------+------+
---------------------------------------------------------------------------------
Finished Writing Synthesis Report : Time (s): cpu = 00:00:29 ; elapsed = 00:00:35 . Memory (MB): peak = 2185.148 ; gain = 397.203 ; free physical = 276 ; free virtual = 10325
---------------------------------------------------------------------------------
Synthesis finished with 0 errors, 0 critical warnings and 0 warnings.
Synthesis Optimization Runtime : Time (s): cpu = 00:00:27 ; elapsed = 00:00:33 . Memory (MB): peak = 2185.148 ; gain = 271.375 ; free physical = 333 ; free virtual = 10382
Synthesis Optimization Complete : Time (s): cpu = 00:00:29 ; elapsed = 00:00:35 . Memory (MB): peak = 2185.156 ; gain = 397.203 ; free physical = 333 ; free virtual = 10382
INFO: [Project 1-571] Translating synthesized netlist
Netlist sorting complete. Time (s): cpu = 00:00:00.01 ; elapsed = 00:00:00 . Memory (MB): peak = 2185.156 ; gain = 0.000 ; free physical = 401 ; free virtual = 10450
INFO: [Netlist 29-17] Analyzing 20 Unisim elements for replacement
INFO: [Netlist 29-28] Unisim Transformation completed in 0 CPU seconds
INFO: [Project 1-570] Preparing netlist for logic optimization
INFO: [Opt 31-138] Pushed 0 inverter(s) to 0 load pin(s).
Netlist sorting complete. Time (s): cpu = 00:00:00 ; elapsed = 00:00:00 . Memory (MB): peak = 2185.156 ; gain = 0.000 ; free physical = 346 ; free virtual = 10394
INFO: [Project 1-111] Unisim Transformation Summary:
No Unisim elements were transformed.

INFO: [Common 17-83] Releasing license: Synthesis
61 Infos, 0 Warnings, 0 Critical Warnings and 0 Errors encountered.
synth_design completed successfully
synth_design: Time (s): cpu = 00:00:39 ; elapsed = 00:00:46 . Memory (MB): peak = 2185.156 ; gain = 648.328 ; free physical = 478 ; free virtual = 10526
Netlist sorting complete. Time (s): cpu = 00:00:00 ; elapsed = 00:00:00 . Memory (MB): peak = 2185.156 ; gain = 0.000 ; free physical = 478 ; free virtual = 10526
ADVISORY: [Constraints 18-5210] No constraints selected for write.
Resolution: This message can indicate that there are no constraints for the design, or it can indicate that the used_in flags are set such that the constraints are ignored. This later case is used when running synth_design to not write synthesis constraints to the resulting checkpoint. Instead, project constraints are read when the synthesized design is opened.
INFO: [Common 17-1381] The checkpoint '/home/nacho/repos/sexto/td4/tp1/resolucion/vivado/td4_tp1_encoder.runs/synth_2/motor_encoder_control.dcp' has been generated.
INFO: [runtcl-4] Executing : report_utilization -file motor_encoder_control_utilization_synth.rpt -pb motor_encoder_control_utilization_synth.pb
INFO: [Common 17-206] Exiting Vivado at Sun May 17 10:57:10 2020...
