# compile vhdl design source files
vhdl xil_defaultlib  \
"../../../../td4_tp2_vga.srcs/sources_1/imports/vga/clk_wiz_0.vhd" \
"../../../../td4_tp2_vga.srcs/sources_1/imports/vga/clk_wiz_0_clk_wiz.vhd" \
"../../../../td4_tp2_vga.srcs/sources_1/imports/vga/graphic_unit.vhd" \
"../../../../td4_tp2_vga.srcs/sources_1/imports/vga/vga_sync.vhd" \
"../../../../td4_tp2_vga.srcs/sources_1/imports/vga/vga_test.vhd" \
"../../../../td4_tp2_vga.srcs/sim_1/imports/utilidades/tb_top.vhd" \

# Do not sort compile order
nosort
