vhdl work "../../fuentes/decimal_counter.vhd"
vhdl work "../../fuentes/bcd7seg.vhd"
vhdl work "../../fuentes/mux_displays.vhd"
vhdl work "../../fuentes/count_decider.vhd"
vhdl work "../../fuentes/counter7seg.vhd"
vhdl work "../../fuentes/clk_divisor.vhd"
vhdl work "../../fuentes/bcd2bin.vhd"
vhdl work "../../fuentes/pwm_control.vhd"
vhdl work "../../fuentes/pwm.vhd"
vhdl work "../../fuentes/full_counter.vhd"
vhdl work "../../fuentes/decoder.vhd"
vhdl work "../../fuentes/top_motor_decoder_control.vhd"
