#-----------------------------------------------------------
# Webtalk v2019.2 (64-bit)
# SW Build 2708876 on Wed Nov  6 21:39:14 MST 2019
# IP Build 2700528 on Thu Nov  7 00:09:20 MST 2019
# Start of session at: Mon May  4 16:24:25 2020
# Process ID: 90891
# Current directory: /home/nacho/repos/sexto/td4/tp1/resolucion/vivado/td4_tp1_encoder.sim/sim_1/impl/timing/xsim
# Command line: wbtcv -mode batch -source /home/nacho/repos/sexto/td4/tp1/resolucion/vivado/td4_tp1_encoder.sim/sim_1/impl/timing/xsim/xsim.dir/enc_dec_tb_time_impl/webtalk/xsim_webtalk.tcl -notrace
# Log file: /home/nacho/repos/sexto/td4/tp1/resolucion/vivado/td4_tp1_encoder.sim/sim_1/impl/timing/xsim/webtalk.log
# Journal file: /home/nacho/repos/sexto/td4/tp1/resolucion/vivado/td4_tp1_encoder.sim/sim_1/impl/timing/xsim/webtalk.jou
#-----------------------------------------------------------
source /home/nacho/repos/sexto/td4/tp1/resolucion/vivado/td4_tp1_encoder.sim/sim_1/impl/timing/xsim/xsim.dir/enc_dec_tb_time_impl/webtalk/xsim_webtalk.tcl -notrace
INFO: [Common 17-186] '/home/nacho/repos/sexto/td4/tp1/resolucion/vivado/td4_tp1_encoder.sim/sim_1/impl/timing/xsim/xsim.dir/enc_dec_tb_time_impl/webtalk/usage_statistics_ext_xsim.xml' has been successfully sent to Xilinx on Mon May  4 16:24:29 2020. For additional details about this file, please refer to the WebTalk help file at /home/nacho/programas/vivado/Vivado/2019.2/doc/webtalk_introduction.html.
INFO: [Common 17-206] Exiting Webtalk at Mon May  4 16:24:29 2020...
