# compile vhdl design source files
vhdl xil_defaultlib  \
"../../../../../../../../../descargas/gabtd4/cuadritov2/clockGen.vhd" \
"../../../../../../../../../descargas/gabtd4/cuadritov2/contadorV2.vhd" \
"../../../../../../../../../descargas/gabtd4/cuadritov2/genBanV2.vhd" \
"../../../../../../../../../descargas/gabtd4/cuadritov2/maquinaEstadosV2.vhd" \
"../../../../../../../../../descargas/gabtd4/cuadritov2/testCuadrado.vhd" \
"../../../../../../../../../descargas/gabtd4/cuadritov2/topVGAdriver.vhd" \
"../../../../../../utilidades/tb_top.vhd" \

# Do not sort compile order
nosort
